{
  "template": {
    "tag": "cells-template-paper-drawer-panel",
    "properties": {
      "disableEdgeSwipe": true,
      "headerFixed": true
    }
  },
  "components": [
    {
      "zone": "app__header",
      "type": "UI",
      "familyPath": "../elements/another-greeting",
      "tag": "another-greeting",
      "properties": {
        "cellsConnections": {
          "in": {
            "greeting-channel": {
              "bind": "another-greeting"
            },
            "url-channel":{
              "bind":"url-images"
            }
          }
        }
      }
    },
    {
      "zone": "app__main",
      "type": "UI",
      "familyPath": "../elements/my-greeting",
      "tag": "my-greeting",
      "properties": {
        "cellsConnections": {
          "in": {},
          "out": {
            "greeting-channel": {
              "bind": "greeting-changed"
            },
            "url-channel": {
              "bind": "url-changed"
            }
          }
        }
      }
    },
    {
      "zone": "app__main",
      "type": "UI",
      "familyPath": "../elements/link-consultas",
      "tag": "link-consultas",
      "properties": {
        "cellsConnections": {
          "in": {},
          "out": {
            "param-channel": {
              "bind": "param-url-event",
              "link": {
                "page": "another",
                "params": {
                  "idToSend": "idForUseInAnotherPage"
                }
              }
            },
            "router-channel": {
              "bind": "router-event",
              "link": {
                "page": "routerExample"
              }
            }
          }
        }
      }
    },
    {
      "zone": "app__main",
      "type": "CC",
      "familyPath": "../elements/example-cross-component",
      "tag": "example-cross-component"
    }
  ]
}
